Name,Sex,Equipment,Division,BodyweightKg,WeightClassKg,Squat1Kg,Squat2Kg,Squat3Kg,Best3SquatKg,Bench1Kg,Bench2Kg,Bench3Kg,Best3BenchKg,Deadlift1Kg,Deadlift2Kg,Deadlift3Kg,Best3DeadliftKg,TotalKg,Event,Country,BirthDate,Place
Svitlana Mednikova,F,Raw,M-2,58.8,60,,,,,60,65,-70,65,,,,,65,B,Germany,,1
Nicole Kegeler,F,Raw,Open,62.8,67.5,,,,,105,-110.5,110.5,110.5,,,,,110.5,B,Germany,,1
Irene Pignataro,F,Raw,M-2,74,75,,,,,-80,-85,85,85,,,,,85,B,Germany,,1
Sabine Allner,F,Raw,Open,114,90+,,,,,130,140,-145,140,,,,,140,B,Germany,,1
Sabine Allner,F,Unlimited,Open,114,90+,,,,,150,160,-165,160,,,,,160,B,Germany,,1
Thomas Graf von Falkenstein,M,Raw,M-4,65.9,67.5,,,,,105,112.5,-115.5,112.5,,,,,112.5,B,Germany,,1
Stefan Dreher,M,Raw,Open,69.5,75,,,,,95,-102.5,-102.5,95,,,,,95,B,Germany,,1
Niklas Siebenhüter,M,Raw,T-2,73.9,75,,,,,-100,-100,-110,,,,,,,B,Germany,,DQ
Michael Mednikov,M,Raw,T-2,72.2,75,,,,,100,105,-110,105,,,,,105,B,Germany,,1
Uwe Benik,M,Raw,M-1,80.5,82.5,,,,,140,-145,145,145,,,,,145,B,Germany,,1
Fred Pommerenke,M,Single-ply,M-4,81,82.5,,,,,95,97.5,100,100,,,,,100,B,Germany,,1
Philipp Jambor,M,Raw,Open,82.5,82.5,,,,,150,160,167.5,167.5,,,,,167.5,B,Germany,,1
Bakary Keita,M,Raw,Open,82.4,82.5,,,,,120,135,-152.5,135,,,,,135,B,Germany,,2
Mirko Klatt,M,Raw,M-1,88,90,,,,,130,132.5,-135,132.5,,,,,132.5,B,Germany,,1
Alexander Benik,M,Raw,M-2,88.6,90,,,,,160,-168,168,168,,,,,168,B,Germany,,1
Frank Lubitz,M,Raw,M-5,88.5,90,,,,,115,125,130,130,,,,,130,B,Germany,,1
Fabian Baum,M,Raw,Open,90,90,,,,,160,-170,180,180,,,,,180,B,Germany,,1
Paul Tesenvitz,M,Raw,T-2,89.2,90,,,,,110,115,120,120,,,,,120,B,Germany,,1
David Demidov,M,Raw,T-2,86.5,90,,,,,100,105,-110,105,,,,,105,B,Germany,,2
Ingo Cremer,M,Raw,M-2,92.6,100,,,,,150,155,160,160,,,,,160,B,Germany,,1
Andreas Kling,M,Raw,M-3,97.7,100,,,,,160,170,171,171,,,,,171,B,Germany,,1
Göran Vente,M,Raw,M-3,99.5,100,,,,,160,165,-170.5,165,,,,,165,B,Germany,,2
Albert Olomek,M,Raw,M-7,90.8,100,,,,,110,120,130,130,,,,,130,B,Germany,,1
Sebastian Brunner,M,Raw,Open,99.7,100,,,,,180,185,-190,185,,,,,185,B,Germany,,1
Calvin Cremer,M,Raw,T-2,97.6,100,,,,,120,125,130,130,,,,,130,B,Germany,,1
Thomas Elfner,M,Raw,M-3,101.1,110,,,,,140,156,160,160,,,,,160,B,Germany,,1
Kersten Kammer,M,Raw,M-4,106.8,110,,,,,130,-140,-142.5,130,,,,,130,B,Germany,,1
Mohammad Sharif Aram,M,Raw,Open,109.6,110,,,,,190,202.5,-205,202.5,,,,,202.5,B,Germany,,1
Kardo Azad,M,Raw,Jun,121.2,125,,,,,140,-145,145,145,,,,,145,B,Germany,,1
Martin Erlitz,M,Raw,M-1,124.8,125,,,,,210,220.5,-227.5,220.5,,,,,220.5,B,Germany,,1
Viktor Mednikov,M,Raw,M-2,115.9,125,,,,,-170,170,,170,,,,,170,B,Germany,,1
István Szabó,M,Raw,M-3,115.9,125,,,,,-125,125,135,135,,,,,135,B,Germany,,1
Burak Kacar,M,Raw,Open,111.3,125,,,,,250,-260,-262.5,250,,,,,250,B,Germany,,1
Daniel Boss,M,Raw,Open,117,125,,,,,210,220,-225,220,,,,,220,B,Germany,,2
Maximilian Brunner,M,Raw,Open,123,125,,,,,150,160,167.5,167.5,,,,,167.5,B,Germany,,3
Göksel Böttcher,M,Raw,M-1,130.1,140,,,,,150,160,-170,160,,,,,160,B,Germany,,1
Matthias Fanselow,M,Raw,M-2,125.1,140,,,,,-170,-170,-170,,,,,,,B,Germany,,DQ
Markus E. Weinmaier,M,Raw,Open,139.1,140,,,,,-220,-220,-220,,,,,,,B,Germany,,DQ
Alexander Gerth,M,Raw,Open,145.8,140+,,,,,180,190,-195,190,,,,,190,B,Germany,,1
Helmut Kraus,M,Multi-ply,M-3,97.7,100,,,,,180,197.5,-210,197.5,,,,,197.5,B,Germany,,1
Helmut Kraus,M,Unlimited,M-3,97.7,100,,,,,180,200,220,220,,,,,220,B,Germany,,1
Erik Knöfler,M,Unlimited,Open,98,100,,,,,250,260,280,280,,,,,280,B,Germany,,1
Karl Heinz Lorenz,M,Single-ply,M-5,72.2,75,,,,,-121,-121,-121,,,,,,,B,Germany,,DQ
Patric Kaltenbacher,M,Single-ply,Open,99.4,100,,,,,245,255,262.5,262.5,,,,,262.5,B,Germany,,1
Sven Lorenz,M,Single-ply,M-1,106.1,110,,,,,170,180,-185,180,,,,,180,B,Germany,,1
Martin Erlitz,M,Single-ply,M-1,124.8,125,,,,,-270,-280,,,,,,,,B,Germany,,DQ
Bernd Willer,M,Raw,M-7,77.1,82.5,-100,-100,-100,,,,,,,,,,,S,Germany,,DQ
Paul Tesenvitz,M,Wraps,T-2,89.2,90,-160,170,185,185,,,,,,,,,185,S,Germany,,1
Hagen Ribb,M,Raw,M-3,113.2,125,160,180,190,190,,,,,,,,,190,S,Germany,,1
Bakary Keita,M,Raw,Open,82.4,82.5,150,175,-200,175,,,,,,,,,175,S,Germany,,1
Viktor Bracht,M,Wraps,M-5,91.7,100,180,200,210,210,,,,,,,,,210,S,Germany,,1
Robert Hofbauer,M,Wraps,Open,110,110,200,215,225,225,,,,,,,,,225,S,Germany,,1
René Falk,M,Wraps,M-3,117.5,125,-250,260,292.5,292.5,,,,,,,,,292.5,S,Germany,,1
Selin Gencer,F,Wraps,Open,62.1,67.5,100,105,110,110,47.5,50,52.5,52.5,145,155,-165,155,317.5,SBD,Germany,,1
Barbara Ritzer,F,Wraps,M-1,61.5,67.5,-100,100,110,110,57.5,60,65,65,105,117.5,125,125,300,SBD,Germany,,1
Denise Herber,F,Wraps,Open,72.1,75,220,232.5,237.5,237.5,115,122.5,127.5,127.5,220,235,242.5,242.5,607.5,SBD,Germany,,1
Anja Zosso,F,Wraps,Open,68.4,75,195,210,-220,210,107.5,-115,-115,107.5,175,-185,,175,492.5,SBD,Switzerland,,2
Lisa Linser,F,Wraps,T-2,81.7,82.5,77.5,80,82.5,82.5,40,45,-50,45,90,95,100,100,227.5,SBD,Germany,,1
Dagmar Friedrich,F,Wraps,Open,93.9,90+,135,142.5,-152.5,142.5,55,60,67.5,67.5,115,127.5,137.5,137.5,347.5,SBD,Germany,,1
Alice Carry Hennig,F,Raw,Open,61.7,67.5,70,-72.5,-75,70,52.5,55,57.5,57.5,92.5,97.5,100,100,227.5,SBD,Germany,1985-01-10,1
Rebekka Thomas,F,Raw,Open,82.5,82.5,110,120,130,130,65,72.5,-77.5,72.5,140,155,160,160,362.5,SBD,Germany,,1
Katrin Ribb,F,Raw,M-3,80,82.5,80,90,100,100,95,102.5,110,110,140,150,160,160,370,SBD,Germany,,1
Anita Riedl,F,Single-ply,M-4,103.1,90+,100,110,120,120,72.5,80,-90,80,90,107.5,120,120,320,SBD,Germany,,1
Jan Hellwig,M,Wraps,Open,65.7,67.5,170,182.5,190,190,112.5,120,-125,120,190,205,215,215,525,SBD,Germany,,1
Dominik Barth,M,Wraps,Open,66,67.5,160,170,180,180,110,120,-127.5,120,200,210,215,215,515,SBD,Germany,,2
Felix Leidl,M,Wraps,Jun,73.2,75,190,207.5,-212.5,207.5,125,135.5,140,140,180,200,-210,200,547.5,SBD,Germany,,1
Klaus Leitmann,M,Wraps,Open,74.8,75,205,215,225,225,120,127.5,-132.5,127.5,200,210,-215,210,562.5,SBD,Germany,,1
Robert Robeis,M,Wraps,M-5,69.6,75,90,110,120,120,72.5,80,82.5,82.5,170,190,-205,190,392.5,SBD,Germany,,1
Moritz Schmidt,M,Wraps,Jun,80.6,82.5,135,147.5,157.5,157.5,87.5,95,100,100,185,200,210,210,467.5,SBD,Germany,,2
Florian Bamberg,M,Wraps,Jun,81.9,82.5,245,255,262.5,262.5,-132.5,137.5,142.5,142.5,265,-275,275,275,680,SBD,Germany,,1
Tobias Höcherl,M,Wraps,Open,77,82.5,-112.5,115,120,120,-82.5,82.5,87.5,87.5,130,137.5,142.5,142.5,350,SBD,Germany,,3
Edgar Gann,M,Wraps,Open,82.2,82.5,150,160,180,180,110,-120,130,130,160,180,-200,180,490,SBD,Germany,,2
Dmitriy Kuznetsov,M,Wraps,Open,79.6,82.5,177.5,187.5,-192.5,187.5,127.5,135,137.5,137.5,195,210,215,215,540,SBD,Germany,,1
Jan Augustat,M,Wraps,M-3,81.7,82.5,190,-207.5,,190,115,122.5,125,125,195,205,215,215,530,SBD,Germany,,1
Paul Tesenvitz,M,Wraps,T-2,89.2,90,175,-187.5,190,190,115,122.5,-125,122.5,230,242.5,258.5,258.5,571,SBD,Germany,,1
Dominik Niemietz,M,Wraps,Open,89.4,90,175,185,190,190,-120,120,-127.5,120,-220,230,-235,230,540,SBD,Germany,,3
Leon Herrmann,M,Wraps,Open,88.5,90,-160,180,-200,180,130,150,-160,150,-180,210,-215,210,540,SBD,Germany,,2
Julien Borg,M,Wraps,Open,86.6,90,285,305,-317.5,305,185,200,-210,200,285,305,-315,305,810,SBD,Germany,,1
Mario Maier,M,Wraps,M-1,90,90,240,-255,,240,140,150,,150,250,270,,270,660,SBD,Germany,,1
Detlef Riedel,M,Wraps,M-5,84.9,90,200,220,235,235,125,130,135,135,200,215,222.5,222.5,592.5,SBD,Germany,,1
Bogdan Potapov,M,Wraps,T-2,96.2,100,130,140,147.5,147.5,85,92.5,-100,92.5,165,175,-180,175,415,SBD,Germany,,1
Erik Knöfler,M,Wraps,Open,98,100,280,-300,300,300,160,172.5,180,180,280,300,307.5,307.5,787.5,SBD,Germany,,1
Zygimantas Balsaitis,M,Wraps,Open,99.1,100,240,-255,-255,240,177.5,185,-190,185,290,300,305,305,730,SBD,Germany,,2
Stefan Schultheiß,M,Wraps,Open,95.7,100,250,-275,275,275,170,-180,180,180,250,-275,-275,250,705,SBD,Germany,,3
Jonas Arnold,M,Wraps,Open,99,100,240,252.5,-262.5,252.5,125,132.5,-140,132.5,230,242.5,252.5,252.5,637.5,SBD,Switzerland,,4
Matthias Hauers,M,Wraps,Open,98.3,100,200,210,220,220,115,120,125,125,220,-230,-230,220,565,SBD,Germany,,5
Toby Barnes,M,Wraps,Open,98.5,100,-180,190,200,200,120,125,130,130,200,210,220,220,550,SBD,Germany,,6
Marvin Engel,M,Wraps,Open,91.2,100,285,-310,330,330,195,205,-210,205,,,,,,SBD,Germany,,DQ
Jens Hantel,M,Wraps,M-2,100,100,-175,-175,175,175,110,-120,-120,110,205,210,215,215,500,SBD,Germany,,1
Peter Kotschenreuther,M,Wraps,M-4,94.9,100,140,150,-155,150,115,120,125,125,-185,190,205,205,480,SBD,Germany,,1
Marcel Rothauszky,M,Wraps,Open,108.6,110,320,335,-345,335,-200,207.5,215,215,300,315,320,320,870,SBD,Germany,,1
Nico Viduka,M,Wraps,Open,105.4,110,280,300,-312.5,300,-205,212.5,-217.5,212.5,310,330,-337.5,330,842.5,SBD,Germany,,2
Pino de Tommaso,M,Wraps,Open,101.1,110,240,250,260,260,170,-180,-180,170,260,-270,270,270,700,SBD,Germany,,3
Wilhelm Oldenburger,M,Wraps,Open,107.9,110,165,177.5,190,190,140,150,-157.5,150,220,-240,245,245,585,SBD,Germany,,4
Ansgar Dressler,M,Wraps,M-3,107.1,110,170,190,-200,190,125,135,-140,135,225,245,-255,245,570,SBD,Germany,,1
Mike Tissen,M,Wraps,Jun,119.5,125,205,220,232.5,232.5,145,160,-165,160,255,-270,-270,255,647.5,SBD,Germany,,1
Sebastian Messer,M,Wraps,Open,118.8,125,250,260,-275,260,130,137.5,145,145,270,282.5,-295,282.5,687.5,SBD,Germany,,1
Björn Barkow,M,Wraps,M-1,110.2,125,-200,-210,210,210,140,150,-160,150,200,220,-235,220,580,SBD,Germany,,1
Albin Hasanović,M,Wraps,Open,136.8,140,280,300,,300,160,180,-200,180,290,310,320,320,800,SBD,Germany,,1
Shahram Forutan,M,Multi-ply,M-3,78.7,82.5,232.5,253,,253,155,168,-180,168,200,-232,,200,621,SBD,Germany,,1
Can Tosun,M,Multi-ply,Jun,88.1,90,-312.5,-312.5,312.5,312.5,-170,170,-180,170,180,220,-230,220,702.5,SBD,Germany,,1
Ulrich Mielich,M,Raw,M-9,75,75,40,50,60,60,42.5,-50,52.5,52.5,70,85,92.5,92.5,205,SBD,Germany,,1
Hakan Özkurt,M,Raw,Open,80.1,82.5,210,225,-235,225,130,140,-150,140,-230,-260,-260,,,SBD,Germany,,DQ
Bakary Keita,M,Raw,Open,82.4,82.5,150,175,-182.5,175,120,122.5,135,135,200,215,225,225,535,SBD,The Gambia,,1
Bernd Willer,M,Raw,M-7,77.1,82.5,30,,,30,30,40,45,45,50,,,50,125,SBD,Germany,,1
David Plaschke,M,Raw,Open,89.5,90,201,215,,215,145,-150,150,150,220,240,261,261,626,SBD,Germany,,1
Viktor Bracht,M,Raw,M-5,91.7,100,180,-195,200,200,90,100,110,110,185,200,,200,510,SBD,Germany,,1
Fabian Dick,M,Raw,Open,124,125,260,-270,270,270,200,210,215,215,300,310,-315,310,795,SBD,Germany,,1
Göksel Böttcher,M,Raw,M-1,130.1,140,170,-190,190,190,140,150,160,160,160,180,200,200,550,SBD,Germany,,1
Lothar Pritzl,M,Single-ply,M-5,88.2,90,185,205,-215,205,105,120,-130,120,180,-190,,180,505,SBD,Germany,,1
Peter Malfa,M,Single-ply,M-4,99.4,100,-220,240,-255,240,110,117.5,122.5,122.5,210,225,,225,587.5,SBD,Germany,,1
Christopher Röper,M,Single-ply,Open,121.8,125,340,-360.5,-360.5,340,-270,270,-300,270,270,290,-300,290,900,SBD,Germany,,1
Elvira Gerland,F,Raw,M-3,62.3,67.5,,,,,,,,,90,95,100,100,100,D,Germany,,1
Manuela Nader,F,Raw,Open,74.7,75,,,,,,,,,95,107.5,112.5,112.5,112.5,D,Germany,,1
Ulrike Ertl,F,Raw,M-5,79.2,82.5,,,,,,,,,180,192.5,202.5,202.5,202.5,D,Germany,,1
Burkhard Steffen,M,Raw,M-7,69.6,75,,,,,,,,,120,127.5,132.5,132.5,132.5,D,Germany,,1
Stefan Dreher,M,Raw,Open,69.5,75,,,,,,,,,120,130,140,140,140,D,Germany,,1
Bernd Willer,M,Raw,M-7,77.1,82.5,,,,,,,,,50,70,,70,70,D,Germany,,1
Bakary Keita,M,Raw,Open,82.4,82.5,,,,,,,,,210,-225,-225,210,210,D,Germany,,1
Lothar Schulze,M,Raw,M-7,84,90,,,,,,,,,145,160,170,170,170,D,Germany,,1
Benjamin Bernhardt,M,Raw,Open,86,90,,,,,,,,,250,280,,280,280,D,Germany,,1
Paul Tesenvitz,M,Raw,T-2,89.2,90,,,,,,,,,220,230,240,240,240,D,Germany,,1
Franz Ritzer,M,Raw,M-2,100,100,,,,,,,,,270,282.5,290,290,290,D,Germany,,1
Guido Schlemmer,M,Raw,Open,98.7,100,,,,,,,,,240,260,275,275,275,D,Germany,,1
Johannes Held,M,Raw,Open,99.2,100,,,,,,,,,160,170,180,180,180,D,Germany,,2
Peter Kotschenreuther,M,Single-ply,M-4,94.6,100,,,,,,,,,190,207.5,215,215,215,D,Germany,,1
Kersten Kammer,M,Raw,M-4,106.8,110,,,,,,,,,180,192.5,205,205,205,D,Germany,,1
Max Kleinwächter,M,Raw,Open,109,110,,,,,,,,,-300,-300,,-300,,D,Germany,,DQ
Mohammad Sharif Aram,M,Raw,Open,109.6,110,,,,,,,,,225,245,-255,245,245,D,Germany,,1
Maximilian Brunner,M,Multi-ply,Open,123,125,,,,,,,,,250,260,-270,260,260,D,Germany,,1
Kardo Azad,M,Raw,Jun,121.2,125,,,,,,,,,200,210,220,220,220,D,Germany,,1
René Falk,M,Raw,M-3,117.5,125,,,,,,,,,280,-302.5,-302.5,280,280,D,Germany,,1
Burak Kacar,M,Raw,Open,111.3,125,,,,,,,,,310,322.5,-330,322.5,322.5,D,Germany,,1
Patrick Ohleff,M,Raw,M-1,132.4,140,,,,,,,,,275,300,305,305,305,D,Germany,,1
Göksel Böttcher,M,Raw,M-1,130.1,140,,,,,,,,,170,190,-210,190,190,D,Germany,,2
Alexander Gerth,M,Raw,Open,145.8,140+,,,,,,,,,280,300,-307.5,300,300,D,Germany,,1
