Place,Name,Sex,BirthDate,Country,Equipment,Division,BodyweightKg,WeightClassKg,Squat1Kg,Squat2Kg,Squat3Kg,Best3SquatKg,Bench1Kg,Bench2Kg,Bench3Kg,Best3BenchKg,Deadlift1Kg,Deadlift2Kg,Deadlift3Kg,Best3DeadliftKg,TotalKg,Event
NS,Linda Gansner,F,1997-07-19,Switzerland,Raw,Open,,,,,,,,,,,,,,,,SBD
NS,Monika Kohler-Wiesli,F,1959-09-25,Switzerland,Raw,Open,,,,,,,,,,,,,,,,SBD
NS,Sonja Gysin,F,1961-07-05,Switzerland,Raw,Open,,,,,,,,,,,,,,,,SBD
1,Jacqueline Ulrich,F,1995-11-25,Germany,Raw,Open,55.5,57,140,147.5,150,150,80,85,-90,85,-150,157.5,165,165,400,SBD
2,Anna Henzi,F,1992-12-27,Switzerland,Raw,Open,56.6,57,120,127.5,130,130,85,90.5,-93.5,90.5,140,145,-150,145,365.5,SBD
3,Natascha Wernli,F,1997-01-12,Switzerland,Raw,Open,53.1,57,60,65,70,70,32.5,35,40,40,75,85,90,90,200,SBD
1,Jana Kamberi,F,1990-11-18,Switzerland,Raw,Open,62.8,63,152.5,162.5,167.5,167.5,75,80,82.5,82.5,152.5,162.5,170.5,170.5,420.5,SBD
2,Lauris Auch,F,1997-06-11,Switzerland,Raw,Open,62.5,63,132.5,137.5,142.5,142.5,77.5,82.5,84,84,140,150,155,155,381.5,SBD
3,Victoria Rimensberger,F,1990-10-05,Switzerland,Raw,Open,62,63,127.5,135,140,140,65,70,-72.5,70,150,-157.5,157.5,157.5,367.5,SBD
4,Deborah Pungitore,F,1990-07-27,Switzerland,Raw,Open,62.1,63,122.5,130,135,135,72.5,77.5,80,80,130,142.5,-147.5,142.5,357.5,SBD
5,Cinzia Zeltner,F,1985-04-16,Switzerland,Raw,Open,62.2,63,115,120,122.5,122.5,55,60,62.5,62.5,155,162.5,171,171,356,SBD
6,Laura Rettig,F,1992-06-02,Switzerland,Raw,Open,62,63,107.5,115,120,120,60,62.5,65,65,142.5,152.5,-157.5,152.5,337.5,SBD
7,Rachael Camp,F,1988-05-31,Switzerland,Raw,Open,62.5,63,102.5,-107.5,107.5,107.5,62.5,65,67.5,67.5,125,132.5,140,140,315,SBD
8,Selin Tabak,F,1998-02-18,Switzerland,Raw,Open,58.6,63,95,97.5,102.5,102.5,60,65,-67.5,65,100,110,117.5,117.5,285,SBD
9,Stephanie Brughelli,F,1987-09-09,Switzerland,Raw,Open,60.5,63,80,87.5,92.5,92.5,47.5,52.5,-55,52.5,117.5,127.5,135,135,280,SBD
1,Andrea Marx,F,1993-03-27,Switzerland,Raw,Open,68.1,69,142.5,150,157.5,157.5,87.5,92,-93.5,92,175,182.5,-190.5,182.5,432,SBD
2,Tamara Thoma,F,1993-08-18,Switzerland,Raw,Open,67.5,69,117.5,-122.5,122.5,122.5,77.5,-82.5,-82.5,77.5,152.5,160,165,165,365,SBD
3,Ceyda Yildirim,F,1996-08-15,Switzerland,Raw,Open,68.8,69,120,125,-130,125,65,67.5,70,70,130,137.5,142.5,142.5,337.5,SBD
4,Stefanie Schoch,F,1997-04-08,Switzerland,Raw,Open,67.5,69,100,107.5,115,115,60,65,-70,65,110,120,130,130,310,SBD
1,Victoria Moser,F,1997-12-27,Austria,Raw,Open,73,76,140,147.5,152.5,152.5,77.5,80,82.5,82.5,155,165,-172.5,165,400,SBD
2,Beate Heizmann,F,1979-01-25,Switzerland,Raw,Open,71.9,76,85,92.5,100,100,42.5,47.5,52.5,52.5,110,120,-130,120,272.5,SBD
1,Jessica Butera,F,1992-11-18,Switzerland,Raw,Open,81.9,84,160,170,175,175,92.5,97.5,100,100,172.5,182.5,185.5,185.5,460.5,SBD
2,Krystyna Waterhouse,F,1995-05-14,,Raw,Open,83.9,84,162.5,170,-175,170,102.5,107.5,-110.5,107.5,165,180,182.5,182.5,460,SBD
3,Debora Fischer,F,1991-08-24,Switzerland,Raw,Open,80.7,84,105,115,120,120,75,80,-82.5,80,115,127.5,135,135,335,SBD
1,Mary Ekiru,F,1987-06-02,Switzerland,Raw,Open,104.7,84+,135,142.5,150,150,80,85,90,90,155,165,170,170,410,SBD
NS,Floris Endert,M,1989-05-10,,Raw,Open,,,,,,,,,,,,,,,,SBD
NS,Max Becker,M,1993-01-12,Switzerland,Raw,Open,,,,,,,,,,,,,,,,SBD
NS,Ramon Gysin,M,1983-08-22,Switzerland,Raw,Open,,,,,,,,,,,,,,,,SBD
NS,Roman Eichenberger,M,1996-09-21,Switzerland,Raw,Open,,,,,,,,,,,,,,,,SBD
NS,Silvano Senn,M,1984-03-20,,Raw,Open,,,,,,,,,,,,,,,,SBD
NS,Vladimir Mbassi,M,1990-12-20,,Raw,Open,,,,,,,,,,,,,,,,SBD
1,Alain Jost,M,1997-09-11,Switzerland,Raw,Open,73,74,205,212.5,-225,212.5,145,152.5,-157.5,152.5,247.5,257.5,-262.5,257.5,622.5,SBD
2,Adrien Morand,M,1992-08-08,Switzerland,Raw,Open,73.3,74,215,225,-227.5,225,132.5,-140,140,140,235,245,-250,245,610,SBD
3,David Ochsner,M,1993-06-23,Switzerland,Raw,Open,73,74,150,160,167.5,167.5,117.5,125,-127.5,125,190,200,207.5,207.5,500,SBD
4,Sandro Trottmann,M,1988-02-22,Switzerland,Raw,Open,73,74,170,180,-182.5,180,105,112.5,-117.5,112.5,180,190,-192.5,190,482.5,SBD
5,Roni Rajamäki,M,1996-02-23,,Raw,Open,72.1,74,155,165,-172.5,165,110,115,120,120,167.5,177.5,182.5,182.5,467.5,SBD
6,Alexandre Perret,M,1991-06-01,Switzerland,Raw,Open,70.2,74,140,150,-160,150,112.5,120,125,125,177.5,190,-200,190,465,SBD
1,Raphael Sauta,M,1994-11-18,Switzerland,Raw,Open,82.6,83,215,227.5,235,235,160,167.5,-170,167.5,265,-285,-290,265,667.5,SBD
2,Sven Sigrist,M,1988-07-03,Switzerland,Raw,Open,81.3,83,215,227.5,235,235,142.5,-150,-150,142.5,252.5,267.5,-275,267.5,645,SBD
3,Sacha Pino,M,1997-10-01,Switzerland,Raw,Open,80.1,83,185,192.5,202.5,202.5,140,145,-150,145,-220,-232.5,232.5,232.5,580,SBD
4,Andy Kreuchi,M,1993-09-27,Switzerland,Raw,Open,82.6,83,190,200,210,210,132.5,-142.5,145,145,210,-220,225,225,580,SBD
5,Jacques Daryl Ndongo,M,1995-10-13,Switzerland,Raw,Open,82.2,83,190,202.5,212.5,212.5,110,120,-130,120,190,202.5,205,205,537.5,SBD
6,Cyril Dörfler,M,1993-09-28,Switzerland,Raw,Open,81.2,83,185,195,205,205,100,107.5,-115,107.5,205,220,-230,220,532.5,SBD
7,Kevin von Niederhäusern,M,1992-06-22,Switzerland,Raw,Open,82.6,83,150,162.5,170,170,122.5,-127.5,132.5,132.5,187.5,200,-210,200,502.5,SBD
8,Severin Woodtli,M,1997-06-28,Switzerland,Raw,Open,82.1,83,170,180,187.5,187.5,97.5,105,-110,105,185,-207.5,207.5,207.5,500,SBD
1,Colin Morales,M,1997-11-07,Switzerland,Raw,Open,91.2,93,215,230,242.5,242.5,142.5,150,157.5,157.5,265,285,300,300,700,SBD
2,Isaiah Raza,M,1994-03-09,Switzerland,Raw,Open,92.9,93,250,265.5,-270,265.5,145,152.5,157.5,157.5,230,245,255,255,678,SBD
3,Julian Kohler,M,1995-09-19,Switzerland,Raw,Open,92.1,93,230,237.5,245,245,167.5,175,176.5,176.5,235,245,255,255,676.5,SBD
4,Dennis Goodtzov,M,1996-11-22,,Raw,Open,92.3,93,225,235,-245,235,137.5,145,-150,145,270,285,-300,285,665,SBD
5,Juan Antonio Pinillo,M,1991-09-20,,Raw,Open,91.8,93,-217.5,217.5,232.5,232.5,142.5,150,-152.5,150,255,270,280,280,662.5,SBD
6,Daryl Schlup,M,1996-11-04,,Raw,Open,92.7,93,210,-220,220,220,155,160,-162.5,160,260,275,-285,275,655,SBD
7,Axel Mermin,M,1994-06-28,,Raw,Open,90.7,93,197.5,215,-227.5,215,167.5,176,-177,176,235,250,-260,250,641,SBD
8,Sebastian Traub,M,1994-04-20,Switzerland,Raw,Open,92.8,93,207.5,220,-225,220,140,147.5,-155,147.5,220,-240,-240,220,587.5,SBD
9,Marc Grepper,M,1989-03-20,Switzerland,Raw,Open,91.9,93,200,210,-220,210,135,-145,-145,135,200,220,240,240,585,SBD
10,Nicholas Larson #1,M,1995-07-20,,Raw,Open,92.6,93,185,195,-205,195,110,115,120,120,215,227.5,235,235,550,SBD
11,Ratko Rapaic,M,1997-07-03,Switzerland,Raw,Open,91.1,93,195,-215,-215,195,130,135,-137.5,135,215,-230,-230,215,545,SBD
12,Leon Backwinkel,M,1992-03-28,,Raw,Open,92.8,93,180,185,-192.5,185,137.5,-145,-145,137.5,195,210,-220,210,532.5,SBD
1,Rene Caky,M,2000-11-06,,Raw,Open,103.3,105,270,290,310,310,200,215,220,220,290,320,340,340,870,SBD
2,Benjamin Brög,M,1990-06-30,Switzerland,Raw,Open,104.5,105,275,285,301,301,175,185,-200,185,250,270,-280,270,756,SBD
3,Luca Cirone,M,1986-12-14,,Raw,Open,104.2,105,220,232.5,242.5,242.5,162.5,172.5,-175,172.5,287.5,-300,-300,287.5,702.5,SBD
4,Felix Schelbert,M,1995-02-16,,Raw,Open,102.5,105,210,220,227.5,227.5,147.5,157.5,-165,157.5,255,265,272.5,272.5,657.5,SBD
5,Fabian Baumgartner,M,1993-07-23,Switzerland,Raw,Open,100.4,105,215,230,235,235,135,-147.5,-155,135,230,250,-255,250,620,SBD
6,Christopher Sileno,M,1995-07-05,Switzerland,Raw,Open,102.3,105,180,192.5,200,200,130,140,-147.5,140,235,250,-260,250,590,SBD
7,Mario Wanger,M,1989-06-21,Switzerland,Raw,Open,103.4,105,167.5,177.5,187.5,187.5,130,137.5,-142.5,137.5,200,215,230,230,555,SBD
8,Desmond Holzer,M,1995-09-27,,Raw,Open,103,105,-192.5,200,207.5,207.5,-92.5,97.5,-105,97.5,197.5,205,-215,205,510,SBD
G,Simon Daniel Oswald,M,1996-12-05,Germany,Raw,Open,103.2,105,210,220,235,235,140,150,-155,150,265,285,-292.5,285,670,SBD
1,Zeljko Bekcic,M,1990-07-17,,Raw,Open,116,120,225,235,-240,235,175,185,190,190,240,255,265,265,690,SBD
2,Tom Thoma,M,1988-02-25,Switzerland,Raw,Open,110.6,120,225,237.5,-245,237.5,160,167.5,172.5,172.5,265,277.5,-280,277.5,687.5,SBD
3,Claas Lemkemeier,M,1989-09-05,,Raw,Open,111.7,120,207.5,220,232.5,232.5,132.5,142.5,-152.5,142.5,215,230,-237.5,230,605,SBD
1,Sean Koch,M,2000-11-03,,Raw,Open,149.5,120+,300,315,330,330,170,180,190,190,260,280,300,300,820,SBD
2,Pascal Imhof,M,1982-05-06,,Raw,Open,124.1,120+,245,257.5,262.5,262.5,192.5,200.5,205,205,285,300,310.5,310.5,778,SBD
G,Jonas Maier,M,1994-05-03,Germany,Raw,Open,154.7,120+,240,250,260,260,165,170,-175,170,265,285,-290,285,715,SBD
